[{
    "id": 3,
    "name": "Almarai",
    "url": "https://maraidemoapi.linkwayapps.com",
    "reportURL" : "https://eareports.linkwayapps.com",
    "logo": "/images/company/Almarai-Logo.jpg",
    "tableimg": "/images/ercp/table.png",
    "VersionCode": "2.0.18"

}]